'{
    "page_size": 10,
    "next": "https://hub.docker.com/api/content/v1/products/search/?order=desc\\u0026type=image\\u0026q=cartvp\\u0026architecture=arm,arm64,ppc,s390x,ppc64le,386,amd64\\u0026sort=updated_at\\u0026page=2\\u0026page_size=10",
    "previous": "",
    "page": 1,
    "count": 10000,
    "summaries": [
        {
            "id": "",
            "name": "devacto/microbs-ecommerce-cart-data",
            "slug": "devacto/microbs-ecommerce-cart-data",
            "type": "image",
            "publisher": {
                "id": "2a7dc47274c111e4bea40242ac11001b",
                "name": "devacto"
            },
            "created_at": "2024-08-10T11:17:27.818639Z",
            "updated_at": "2024-08-10T11:17:27.8821Z",
            "short_description": "",
            "source": "community",
            "extension_reviewed": false,
            "popularity": 0,
            "categories": null,
            "operating_systems": [
                {
                    "name": "linux",
                    "label": "Linux"
                }
            ],
            "architectures": [
                {
                    "name": "amd64",
                    "label": "x86-64"
                }
            ],
            "logo_url": {
                "large": "",
                "small": ""
            },
            "certification_status": "",
            "star_count": 0,
            "pull_count": "0",
            "filter_type": "community"
        },
        {
            "id": "",
            "name": "devacto/akc-cart",
            "slug": "devacto/akc-cart",
            "type": "image",
            "publisher": {
                "id": "2a7dc47274c111e4bea40242ac11001b",
                "name": "devacto"
            },
            "created_at": "2024-08-10T11:17:04.074148Z",
            "updated_at": "2024-08-10T11:17:04.12861Z",
            "short_description": "",
            "source": "community",
            "extension_reviewed": false,
            "popularity": 0,
            "categories": null,
            "operating_systems": [
                {
                    "name": "linux",
                    "label": "Linux"
                }
            ],
            "architectures": [
                {
                    "name": "amd64",
                    "label": "x86-64"
                }
            ],
            "logo_url": {
                "large": "",
                "small": ""
            },
            "certification_status": "",
            "star_count": 0,
            "pull_count": "0",
            "filter_type": "community"
        },
        {
            "id": "",
            "name": "kbv1875/cartservice",
            "slug": "kbv1875/cartservice",
            "type": "image",
            "publisher": {
                "id": "5a615c3cc947440e8d8a56a60c7bfdc6",
                "name": "kbv1875"
            },
            "created_at": "2024-08-10T09:05:01.904083Z",
            "updated_at": "2024-08-10T09:05:01.97748Z",
            "short_description": "",
            "source": "community",
            "extension_reviewed": false,
            "popularity": 0,
            "categories": null,
            "operating_systems": [
                {
                    "name": "linux",
                    "label": "Linux"
                }
            ],
            "architectures": [
                {
                    "name": "amd64",
                    "label": "x86-64"
                }
            ],
            "logo_url": {
                "large": "",
                "small": ""
            },
            "certification_status": "",
            "star_count": 0,
            "pull_count": "0",
            "filter_type": "community"
        },
        {
            "id": "",
            "name": "sachintech/cartservice",
            "slug": "sachintech/cartservice",
            "type": "image",
            "publisher": {
                "id": "387f00dd3dda4270a79b15489f18640e",
                "name": "sachintech"
            },
            "created_at": "2024-08-10T07:31:07.513126Z",
            "updated_at": "2024-08-10T07:31:07.567689Z",
            "short_description": "",
            "source": "community",
            "extension_reviewed": false,
            "popularity": 0,
            "categories": null,
            "operating_systems": [
                {
                    "name": "linux",
                    "label": "Linux"
                }
            ],
            "architectures": [
                {
                    "name": "amd64",
                    "label": "x86-64"
                }
            ],
            "logo_url": {
                "large": "",
                "small": ""
            },
            "certification_status": "",
            "star_count": 0,
            "pull_count": "0",
            "filter_type": "community"
        },
        {
            "id": "",
            "name": "vishnusnair/intellicartserver",
            "slug": "vishnusnair/intellicartserver",
            "type": "image",
            "publisher": {
                "id": "6f7e5bed36df4941acd9bda63efe74e5",
                "name": "vishnusnair"
            },
            "created_at": "2024-06-21T08:08:34.208527Z",
            "updated_at": "2024-08-10T06:40:36.34239Z",
            "short_description": "",
            "source": "community",
            "extension_reviewed": false,
            "popularity": 0,
            "categories": null,
            "operating_systems": [
                {
                    "name": "linux",
                    "label": "Linux"
                }
            ],
            "architectures": [
                {
                    "name": "amd64",
                    "label": "x86-64"
                }
            ],
            "logo_url": {
                "large": "",
                "small": ""
            },
            "certification_status": "",
            "star_count": 0,
            "pull_count": "45",
            "filter_type": "community"
        },
        {
            "id": "",
            "name": "bytez/stablediffusionapi_disney-pixar-cartoon",
            "slug": "bytez/stablediffusionapi_disney-pixar-cartoon",
            "type": "image",
            "publisher": {
                "id": "2ace18695e104b02b11690becbb8ee10",
                "name": "bytez"
            },
            "created_at": "2024-08-10T06:40:13.610266Z",
            "updated_at": "2024-08-10T06:40:13.665675Z",
            "short_description": "",
            "source": "community",
            "extension_reviewed": false,
            "popularity": 0,
            "categories": null,
            "operating_systems": [
                {
                    "name": "linux",
                    "label": "Linux"
                }
            ],
            "architectures": [
                {
                    "name": "amd64",
                    "label": "x86-64"
                }
            ],
            "logo_url": {
                "large": "",
                "small": ""
            },
            "certification_status": "",
            "star_count": 0,
            "pull_count": "0",
            "filter_type": "community"
        },
        {
            "id": "",
            "name": "sindhupriya99/shoppcart",
            "slug": "sindhupriya99/shoppcart",
            "type": "image",
            "publisher": {
                "id": "a698537d720f4fe6b7584052eb17d791",
                "name": "sindhupriya99"
            },
            "created_at": "2024-08-06T16:32:50.099634Z",
            "updated_at": "2024-08-10T06:00:28.867386Z",
            "short_description": "",
            "source": "community",
            "extension_reviewed": false,
            "popularity": 0,
            "categories": null,
            "operating_systems": [
                {
                    "name": "linux",
                    "label": "Linux"
                }
            ],
            "architectures": [
                {
                    "name": "amd64",
                    "label": "x86-64"
                }
            ],
            "logo_url": {
                "large": "",
                "small": ""
            },
            "certification_status": "",
            "star_count": 0,
            "pull_count": "5",
            "filter_type": "community"
        },
        {
            "id": "",
            "name": "lostbean/cartservice",
            "slug": "lostbean/cartservice",
            "type": "image",
            "publisher": {
                "id": "c01a47b1a91543ecb893a4a67f8c6dbc",
                "name": "lostbean"
            },
            "created_at": "2024-05-31T19:14:44.985645Z",
            "updated_at": "2024-08-10T00:27:06.949616Z",
            "short_description": "",
            "source": "community",
            "extension_reviewed": false,
            "popularity": 0,
            "categories": null,
            "operating_systems": [
                {
                    "name": "linux",
                    "label": "Linux"
                }
            ],
            "architectures": [
                {
                    "name": "arm64",
                    "label": "arm64"
                },
                {
                    "name": "amd64",
                    "label": "x86-64"
                }
            ],
            "logo_url": {
                "large": "",
                "small": ""
            },
            "certification_status": "",
            "star_count": 0,
            "pull_count": "74",
            "filter_type": "community"
        },
        {
            "id": "",
            "name": "thiexco/shopping-cart",
            "slug": "thiexco/shopping-cart",
            "type": "image",
            "publisher": {
                "id": "5fdda9aeb54f40569356b379bfbdd53b",
                "name": "thiexco"
            },
            "created_at": "2024-08-09T22:47:53.795334Z",
            "updated_at": "2024-08-09T23:19:46.923709Z",
            "short_description": "For Jenkins CI/CD",
            "source": "community",
            "extension_reviewed": false,
            "popularity": 0,
            "categories": null,
            "operating_systems": [
                {
                    "name": "linux",
                    "label": "Linux"
                }
            ],
            "architectures": [
                {
                    "name": "amd64",
                    "label": "x86-64"
                }
            ],
            "logo_url": {
                "large": "",
                "small": ""
            },
            "certification_status": "",
            "star_count": 0,
            "pull_count": "1",
            "filter_type": "community"
        },
        {
            "id": "",
            "name": "milesstoetzner/boutique-cart",
            "slug": "milesstoetzner/boutique-cart",
            "type": "image",
            "publisher": {
                "id": "6ae6f0649f0346d3af95f9a9e9b60df6",
                "name": "milesstoetzner"
            },
            "created_at": "2024-08-05T20:17:07.305518Z",
            "updated_at": "2024-08-09T22:24:40.555719Z",
            "short_description": "",
            "source": "community",
            "extension_reviewed": false,
            "popularity": 0,
            "categories": null,
            "operating_systems": [
                {
                    "name": "linux",
                    "label": "Linux"
                }
            ],
            "architectures": [
                {
                    "name": "amd64",
                    "label": "x86-64"
                }
            ],
            "logo_url": {
                "large": "",
                "small": ""
            },
            "certification_status": "",
            "star_count": 0,
            "pull_count": "14",
            "filter_type": "community"
        }
    ]
}\n'